IS415-GAA – hands-on_ex01
…
ℹ Use `spec()` to retrieve the full column specification for this data.
ℹ Specify the column types or set `show_col_types = FALSE` to quiet this message.

Examining the datafile

list(listings)

[[1]]
# A tibble: 3,457 × 75
       id listing_url    scrap…¹ last_scr…² source name  descr…³ neigh…⁴ pictu…⁵
    <dbl> <chr>            <dbl> <date>     <chr>  <chr> <lgl>   <chr>   <chr>  
 1  71609 https://www.a… 2.02e13 2023-12-27 previ… Vill… NA      <NA>    https:…
 2  71896 https://www.a… 2.02e13 2023-12-26 city … Home… NA      <NA>    https:…
 3  71903 https://www.a… 2.02e13 2023-12-26 city … Home… NA      Quiet … https:…
 4 275343 https://www.a… 2.02e13 2023-12-26 city … Rent… NA      <NA>    https:…
 5 275344 https://www.a… 2.02e13 2023-12-26 city … Rent… NA      Bus st… https:…
 6 289234 https://www.a… 2.02e13 2023-12-27 previ… Home… NA      A quie… https:…
 7 294281 https://www.a… 2.02e13 2023-12-27 city … Rent… NA      <NA>    https:…
 8 324945 https://www.a… 2.02e13 2023-12-26 city … Rent… NA      <NA>    https:…
 9 330095 https://www.a… 2.02e13 2023-12-26 city … Rent… NA      Near I… https:…
10 369141 https://www.a… 2.02e13 2023-12-27 city … Plac… NA      DO YOU… https:…
# … with 3,447 more rows, 66 more variables: host_id <dbl>, host_url <chr>,
#   host_name <chr>, host_since <date>, host_location <chr>, host_about <chr>,
#   host_response_time <chr>, host_response_rate <chr>,
#   host_acceptance_rate <chr>, host_is_superhost <lgl>,
#   host_thumbnail_url <chr>, host_picture_url <chr>, host_neighbourhood <chr>,
#   host_listings_count <dbl>, host_total_listings_count <dbl>,
#   host_verifications <chr>, host_has_profile_pic <lgl>, …
…
